Division,WeightClassKg,Place,Name,Team,BodyweightKg,Best3SquatKg,Best3BenchKg,Best3DeadliftKg,TotalKg,Equipment,Event,Sex
Boys,51.71,1,Andres Guerra,Manor,49.9,83.91,52.16,117.93,254.01,Single-ply,SBD,M
Boys,51.71,2,Joseph Guzaldo,Dripping Springs,45,68.04,43.09,72.57,183.7,Single-ply,SBD,M
Boys,55.79,1,Therrance Soto,San Marcos,55.79,129.27,70.31,142.88,342.46,Single-ply,SBD,M
Boys,55.79,2,Isac Edwards,Manor,54.25,97.52,52.16,129.27,278.96,Single-ply,SBD,M
Boys,55.79,3,DJ Walker,Georgetown East View,53.43,95.25,52.16,124.74,272.16,Single-ply,SBD,M
Boys,55.79,4,Kaleb Halfmann,Austin Lake Travis,54.79,74.84,47.63,90.72,213.19,Single-ply,SBD,M
Boys,59.87,1,Leonardo Calderon,San Marcos,58.42,170.1,120.2,172.37,462.66,Single-ply,SBD,M
Boys,59.87,2,Zyle Nance,Dripping Springs,59.06,142.88,63.5,145.15,351.53,Single-ply,SBD,M
Boys,59.87,3,Jason Leal,Buda Hays,59.51,127.01,81.65,131.54,340.19,Single-ply,SBD,M
Boys,59.87,4,Isaac Trejo,San Marcos,58.15,115.67,70.31,129.27,315.25,Single-ply,SBD,M
Boys,59.87,5,Cole Cavender,Dripping Springs,59.78,106.59,63.5,113.4,283.5,Single-ply,SBD,M
Boys,59.87,6,Brett Smygelski,Georgetown East View,58.06,99.79,68.04,102.06,269.89,Single-ply,SBD,M
Boys,59.87,DQ,Justin Chapman,Buda Hays,58.24,120.2,,,,Single-ply,SBD,M
Boys,59.87,DQ,Cameron Saucedo,Kyle Lehman,59.87,151.95,,,,Single-ply,SBD,M
Boys,67.13,1,Josh Tiha,Manor,66.22,197.31,108.86,215.46,521.63,Single-ply,SBD,M
Boys,67.13,2,Sammy Muniz,San Marcos,63.32,147.42,77.11,188.24,412.77,Single-ply,SBD,M
Boys,67.13,3,Julian Mata,Kyle Lehman,67.13,145.15,104.33,158.76,408.23,Single-ply,SBD,M
Boys,67.13,4,Daniel Mireles,Georgetown East View,64.14,151.95,97.52,149.69,399.16,Single-ply,SBD,M
Boys,67.13,5,David Wederstrandt,Geronimo Navarro,63.78,147.42,92.99,151.95,392.36,Single-ply,SBD,M
Boys,67.13,6,Ray Heiser,Kyle Lehman,63.68,136.08,86.18,165.56,387.82,Single-ply,SBD,M
Boys,67.13,7,Christian Alvarez #1,San Marcos,65.68,145.15,83.91,149.69,378.75,Single-ply,SBD,M
Boys,67.13,8,Justin Jones,Universal City Randolph,60.87,133.81,90.72,151.95,376.48,Single-ply,SBD,M
Boys,67.13,9,Preston Dominguez,Geronimo Navarro,63.5,115.67,74.84,136.08,326.59,Single-ply,SBD,M
Boys,67.13,10,Alexander Osbourne,Austin Lake Travis,63.23,115.67,77.11,127.01,319.78,Single-ply,SBD,M
Boys,67.13,11,Copeland Gothard,Austin Lake Travis,62.32,88.45,56.7,97.52,242.67,Single-ply,SBD,M
Boys,74.84,1,Zach Reid,Dripping Springs,69.94,197.31,136.08,206.38,539.77,Single-ply,SBD,M
Boys,74.84,2,Prescott Remington,Dripping Springs,73.48,183.7,124.74,201.85,510.29,Single-ply,SBD,M
Boys,74.84,3,Joseph Lopez #5,Kyle Lehman,74.57,176.9,117.93,197.31,492.15,Single-ply,SBD,M
Boys,74.84,4,Daniel Russell #4,Georgetown East View,72.21,163.29,92.99,181.44,437.72,Single-ply,SBD,M
Boys,74.84,5,Zeke Charles,Manor,68.13,151.95,74.84,170.1,396.89,Single-ply,SBD,M
Boys,74.84,6,Euler de Leon,Geronimo Navarro,71.76,145.15,97.52,154.22,396.89,Single-ply,SBD,M
Boys,74.84,7,Marcus Barr,Del Valle,73.3,142.88,86.18,163.29,392.36,Single-ply,SBD,M
Boys,74.84,8,Juan Venegas,Dripping Springs,71.49,140.61,102.06,147.42,390.09,Single-ply,SBD,M
Boys,74.84,9,Michael Stokes,Universal City Randolph,68.22,140.61,95.25,149.69,385.55,Single-ply,SBD,M
Boys,74.84,10,Adam Palomares,Buda Hays,73.48,138.35,86.18,149.69,374.21,Single-ply,SBD,M
Boys,74.84,11,Cortland Denisio,Austin Lake Travis,69.67,133.81,86.18,142.88,362.87,Single-ply,SBD,M
Boys,74.84,12,Hakyri Whiteside,Del Valle,71.12,122.47,86.18,133.81,342.46,Single-ply,SBD,M
Boys,74.84,13,Dayton High,Seguin,72.12,106.59,61.23,136.08,303.91,Single-ply,SBD,M
Boys,74.84,14,Matthew Gilliam,Geronimo Navarro,70.94,113.4,58.97,113.4,285.76,Single-ply,SBD,M
Boys,82.1,1,Matt Hemphill,Dripping Springs,82.01,240.4,158.76,226.8,625.96,Single-ply,SBD,M
Boys,82.1,2,Luis Rodriguez #7,Geronimo Navarro,80.47,185.97,127.01,192.78,505.76,Single-ply,SBD,M
Boys,82.1,3,Chris Aguirre,Buda Hays,81.74,179.17,102.06,192.78,474,Single-ply,SBD,M
Boys,82.1,4,Nate Hines,Georgetown East View,82.01,183.7,108.86,181.44,474,Single-ply,SBD,M
Boys,82.1,5,Stone Sahd,Geronimo Navarro,79.2,149.69,97.52,165.56,412.77,Single-ply,SBD,M
Boys,82.1,6,Courtney Lee #1,Manor,79.47,136.08,83.91,174.63,394.63,Single-ply,SBD,M
Boys,82.1,7,Airiq Delarosa,Seguin,81.83,147.42,117.93,120.2,385.55,Single-ply,SBD,M
Boys,82.1,8,Chanse Hernandez,Seguin,79.65,131.54,92.99,154.22,378.75,Single-ply,SBD,M
Boys,82.1,9,Wilwerth Camren,Del Valle,77.84,145.15,81.65,149.69,376.48,Single-ply,SBD,M
Boys,82.1,10,Bryan Hernandez,Georgetown East View,82.1,158.76,79.38,136.08,374.21,Single-ply,SBD,M
Boys,82.1,11,Ad Munoz,Seguin,79.92,117.93,92.99,147.42,358.34,Single-ply,SBD,M
Boys,82.1,12,David Reyna,Geronimo Navarro,76.84,104.33,65.77,113.4,283.5,Single-ply,SBD,M
Boys,82.1,DQ,Caleb Sosa,Kyle Lehman,81.65,115.67,70.31,,,Single-ply,SBD,M
Boys,82.1,DQ,Tamorian Moore,Del Valle,80.74,142.88,,,,Single-ply,SBD,M
Boys,89.81,1,Prudy Calderon,San Marcos,87.36,215.46,113.4,251.74,580.6,Single-ply,SBD,M
Boys,89.81,2,Rene Velasquez,San Marcos,85.91,192.78,117.93,179.17,489.88,Single-ply,SBD,M
Boys,89.81,3,Josh Ewald,Kyle Lehman,87.36,165.56,108.86,195.04,469.47,Single-ply,SBD,M
Boys,89.81,4,Seth Sanchez,Kyle Lehman,88.9,156.49,106.59,190.51,453.59,Single-ply,SBD,M
Boys,89.81,5,Wesley Owens,Dripping Springs,89.81,174.63,102.06,158.76,435.45,Single-ply,SBD,M
Boys,89.81,6,Tajha Brooks,Manor,88.99,156.49,83.91,188.24,428.64,Single-ply,SBD,M
Boys,89.81,7,Jeremiah Aviles,Seguin,83.28,142.88,102.06,170.1,415.04,Single-ply,SBD,M
Boys,89.81,8,Jackson Coulson,Georgetown East View,83.64,158.76,92.99,163.29,415.04,Single-ply,SBD,M
Boys,89.81,9,Terrion Brown,Manor,89.36,124.74,92.99,174.63,392.36,Single-ply,SBD,M
Boys,89.81,10,Daniel Vermillion,Geronimo Navarro,85.73,113.4,97.52,145.15,356.07,Single-ply,SBD,M
Boys,89.81,11,Nicolas Williams,Buda Hays,89.54,124.74,79.38,138.35,342.46,Single-ply,SBD,M
Boys,89.81,12,John Kemp,Buda Hays,88.09,111.13,79.38,142.88,333.39,Single-ply,SBD,M
Boys,89.81,13,Russell Thamm,Austin Lake Travis,89.81,95.25,79.38,129.27,303.91,Single-ply,SBD,M
Boys,89.81,DQ,Caleb Key,Dripping Springs,87.27,170.1,,,,Single-ply,SBD,M
Boys,99.79,1,Abel Longoria,Kyle Lehman,98.07,254.01,158.76,233.6,646.37,Single-ply,SBD,M
Boys,99.79,2,Ryan Leal,Buda Hays,92.53,240.4,151.95,226.8,619.15,Single-ply,SBD,M
Boys,99.79,3,Rick Reyes,Buda Hays,92.62,235.87,145.15,215.46,596.47,Single-ply,SBD,M
Boys,99.79,4,Ochaun Mathis,Manor,97.43,185.97,106.59,226.8,519.36,Single-ply,SBD,M
Boys,99.79,5,Henry Higuera,Kyle Lehman,95.07,181.44,104.33,206.38,492.15,Single-ply,SBD,M
Boys,99.79,6,Jacob Trujillo,Universal City Randolph,89.9,181.44,120.2,188.24,489.88,Single-ply,SBD,M
Boys,99.79,7,Juan Salazar,Seguin,91.08,195.04,111.13,165.56,471.74,Single-ply,SBD,M
Boys,99.79,8,Miguel Vivero,Georgetown East View,96.25,185.97,104.33,181.44,471.74,Single-ply,SBD,M
Boys,99.79,9,Francisco Acosta,Del Valle,98.34,136.08,92.99,140.61,369.68,Single-ply,SBD,M
Boys,99.79,10,Christian Marmolejo,San Marcos,97.98,131.54,74.84,158.76,365.14,Single-ply,SBD,M
Boys,99.79,11,Brett Butler,Geronimo Navarro,94.8,120.2,83.91,140.61,344.73,Single-ply,SBD,M
Boys,99.79,12,Deshaan Borders,Universal City Randolph,95.53,138.35,72.57,124.74,335.66,Single-ply,SBD,M
Boys,99.79,13,Joshua Torres,Del Valle,97.61,104.33,70.31,127.01,301.64,Single-ply,SBD,M
Boys,99.79,14,Justin Burnett,Buda Hays,90.26,113.4,52.16,102.06,267.62,Single-ply,SBD,M
Boys,99.79,DQ,Olisa Uzuegbunam,Manor,99.79,,,,,Single-ply,SBD,M
Boys,109.77,1,Jose Hernandez #5,San Marcos,109.23,272.16,151.95,240.4,664.51,Single-ply,SBD,M
Boys,109.77,2,Matthew Herrera,Austin Lake Travis,106.5,238.14,124.74,206.38,569.26,Single-ply,SBD,M
Boys,109.77,3,Noe Gomez,Geronimo Navarro,106.32,183.7,151.95,170.1,505.76,Single-ply,SBD,M
Boys,109.77,4,Gerardo Martinez,Del Valle,109.68,165.56,115.67,179.17,460.4,Single-ply,SBD,M
Boys,109.77,5,Jaden Maturey,Universal City Randolph,105.23,172.37,95.25,181.44,449.06,Single-ply,SBD,M
Boys,109.77,6,Francisco Ledesma,Seguin,107.59,156.49,102.06,185.97,444.52,Single-ply,SBD,M
Boys,109.77,7,Aaron Ward,Seguin,102.78,147.42,97.52,170.1,415.04,Single-ply,SBD,M
Boys,109.77,8,Jonathan Luna,Universal City Randolph,106.05,147.42,90.72,149.69,387.82,Single-ply,SBD,M
Boys,124.74,1,Seth Seale,Buda Hays,124.65,260.82,188.24,242.67,691.73,Single-ply,SBD,M
Boys,124.74,2,Ramsey Tijerina,San Marcos,115.67,233.6,136.08,222.26,591.94,Single-ply,SBD,M
Boys,124.74,3,Dylan Sillero,San Marcos,123.2,244.94,131.54,206.38,582.87,Single-ply,SBD,M
Boys,124.74,4,Sebastian Goldsworthy,Universal City Randolph,123.2,190.51,124.74,215.46,530.7,Single-ply,SBD,M
Boys,124.74,5,Camden Beaty,Dripping Springs,122.47,181.44,106.59,158.76,446.79,Single-ply,SBD,M
Boys,124.74,6,Jackson Pickard,Georgetown East View,121.65,185.97,95.25,129.27,410.5,Single-ply,SBD,M
Boys,124.74,7,Daniel Urquiza,Del Valle,123.29,127.01,70.31,172.37,369.68,Single-ply,SBD,M
Boys,124.74,DQ,Jaylon Knighten,Del Valle,120.29,208.65,117.93,,,Single-ply,SBD,M
Boys,124.74+,1,Brian Prickett,Kyle Lehman,124.83,226.8,145.15,231.33,603.28,Single-ply,SBD,M
Boys,124.74+,2,Anthony Hill,Manor,180.71,226.8,113.4,238.14,578.33,Single-ply,SBD,M
Boys,124.74+,3,Garrett Dietert,Geronimo Navarro,128.28,229.06,131.54,206.38,566.99,Single-ply,SBD,M
Boys,124.74+,4,Carlos Morales,Kyle Lehman,140.7,208.65,142.88,188.24,539.77,Single-ply,SBD,M
Boys,124.74+,5,Christopher Gutierrez,Del Valle,135.08,124.74,81.65,124.74,331.12,Single-ply,SBD,M
Boys,124.74+,DQ,Jake Adams,Austin Lake Travis,125.19,,,,,Single-ply,SBD,M
Boys,124.74+,DQ,Alex Rodriguez #10,Manor,141.79,167.83,,,,Single-ply,SBD,M
