Place,Name,Sex,Event,Division,WeightClassKg,Equipment,BirthYear,Team,State,BodyweightKg,Squat1Kg,Squat2Kg,Squat3Kg,Best3SquatKg,Bench1Kg,Bench2Kg,Bench3Kg,Best3BenchKg,Deadlift1Kg,Deadlift2Kg,Deadlift3Kg,Best3DeadliftKg,TotalKg,Age,BirthDate
1,Sofia Acosta,F,B,FR-Jr,60,Raw,2003,TruBorn Strong,GA,57.15,,,,,55,-57.5,57.5,57.5,,,,,57.5,,
1,Michelle Rutan,F,B,FR-M2,82.5,Raw,1969,,GA,78.2,,,,,-75,80,-82.5,80,,,,,80,,
2,Katherine McClure,F,B,FR-M2,82.5,Raw,1973,Alpha Strength and Power,GA,80.3,,,,,60,65,67.5,67.5,,,,,67.5,,
1,Rebecca Holcomb,F,B,FR-O,100+,Raw,1987,,GA,164.85,,,,,105,107.5,110,110,,,,,110,,
DQ,Steven P Phillips,M,B,M-M4a,110,Single-ply,1950,,GA,107,,,,,-130,-130,-130,,,,,,,,
1,Samuel Buckner,M,B,MR-Jr,100,Raw,2003,,GA,96.15,,,,,135,142.5,-147.5,142.5,,,,,142.5,,
1,Matthew Springer,M,B,MR-Jr,110,Raw,2003,TruBorn Strong,GA,107,,,,,80,85,-90,85,,,,,85,,
1,Jarrett Strickland,M,B,MR-M1a,110,Raw,1983,,GA,109.9,,,,,150,160,172.5,172.5,,,,,172.5,,
1,Burak Ozbarlas,M,B,MR-M2a,82.5,Raw,1971,,GA,80.45,,,,,60,70,77.5,77.5,,,,,77.5,,
1,Rip Schroeder,M,B,MR-M3a,75,Raw,1962,,GA,73.6,,,,,102.5,112.5,-132.5,112.5,,,,,112.5,,
1,Darrell Allen,M,B,MR-M3a,100,Raw,1961,,GA,93.65,,,,,147.5,150,-152.5,150,,,,,150,,
1,Larry Turley,M,B,MR-M3a,110,Raw,1962,,GA,107.95,,,,,125,132.5,140,140,,,,,140,,
1,Richard Wittmann,M,B,MR-M3b,90,Raw,1956,,GA,86.05,,,,,95,107.5,115,115,,,,,115,,
1,Matthew Norris,M,B,MR-O,100,Raw,2003,,GA,99.95,,,,,125,-132.5,-132.5,125,,,,,125,,
1,David Myers,M,B,MR-O,67.5,Raw,1999,,GA,65.6,,,,,110,115,117.5,117.5,,,,,117.5,,
1,Aaron Williams,M,B,MR-O,82.5,Raw,1989,,GA,79.95,,,,,135,147.5,-155,147.5,,,,,147.5,,
1,Lemi Ozbarlas,M,B,MR-T2,82.5,Raw,2006,,GA,78.35,,,,,105,110,120,120,,,,,120,,
1,Bram Carter,M,B,MR-T3,125,Raw,2005,,GA,116.8,,,,,152.5,175,-182.5,175,,,,,175,,
1,Katherine McClure,F,D,FR-M2a,82.5,Raw,1973,Alpha Strength and Power,GA,80.3,,,,,,,,,120,130,-137.5,130,130,,
1,Troy Williams #1,M,D,MR-M1b,140+,Raw,1978,,GA,178.2,,,,,,,,,215,242.5,260,260,260,,
1,Richard Wittmann,M,D,MR-M3b,90,Raw,1956,,GA,86.05,,,,,,,,,185,200,-210,200,200,,
1,David Myers,M,D,MR-O,67.5,Raw,1999,,GA,65.6,,,,,,,,,142.5,155,165,165,165,,
1,Francis Fernandes,M,D,MR-O,82.5,Raw,1984,Forbidden Technique,GA,80.45,,,,,,,,,240,250,-252.5,250,250,,
1,Elizabeth Kennedy,F,SBD,F-O,67.5,Single-ply,1992,TruBorn Strong,GA,66.35,105,110,117.5,117.5,70,-75,77.5,77.5,97.5,105,-110,105,300,,
1,Olivia Vilella,F,SBD,F-O,82.5,Single-ply,1996,Team Rohr,GA,78.2,125,,,125,115,120,125,125,160,170,180,180,430,,
G,Hailey Moran,F,SBD,FR-G,75,Raw,2002,,TN,70.3,155,162.5,165,165,72.5,75,-77.5,75,160,167.5,-172.5,167.5,407.5,,
G,Cheiyanne Norton,F,SBD,FR-G,100,Raw,1997,,TN,91.1,130,137.5,145,145,77.5,85,90,90,135,145,152.5,152.5,387.5,,
G,Anna Dukes,F,SBD,FR-G,100+,Raw,1991,,SC,104.3,105,110,115,115,65,70,75,75,125,130,135,135,325,,
G,Hayden Galbraith,F,SBD,FR-G,67.5,Raw,2003,,GA,64.95,107.5,-115,120,120,62.5,70,-75,70,115,122.5,130,130,320,,
G,Thembi Mabodoko,F,SBD,FR-G,82.5,Raw,1998,TruBorn Strong,GA,75.1,87.5,102.5,-112.5,102.5,55,60,-62.5,60,120,132.5,145,145,307.5,,
1,Paige Smith,F,SBD,FR-Jr,48,Raw,2003,TruBorn Strong,GA,47.05,85,92.5,-100,92.5,50,55,60,60,95,102.5,110,110,262.5,,
DQ,Trinity Cain,F,SBD,FR-Jr,52,Raw,2003,,GA,50.85,-87.5,-92.5,-92.5,,40,-42.5,-42.5,40,132.5,140,147.5,147.5,,,
1,Courtney Nguyen,F,SBD,FR-Jr,60,Raw,2003,,GA,59.15,110,120,125,125,40,45,47.5,47.5,130,140,145,145,317.5,,
2,Lisa Gomez,F,SBD,FR-Jr,60,Raw,2003,,GA,58.75,110,120,127.5,127.5,50,-55,55,55,97.5,107.5,117.5,117.5,300,,
3,Sofia Acosta,F,SBD,FR-Jr,60,Raw,2003,TruBorn Strong,GA,57.15,102.5,105,-107.5,105,55,-57.5,57.5,57.5,107.5,112.5,115,115,277.5,,
4,Ashton Glover,F,SBD,FR-Jr,60,Raw,2002,,GA,58.9,82.5,-90,90,90,40,42.5,-45,42.5,90,-92.5,92.5,92.5,225,,
DQ,Ella Patten,F,SBD,FR-Jr,60,Raw,2003,,GA,60,-82.5,87.5,-95,87.5,-57.5,-57.5,-60,,-102.5,-102.5,-102.5,,,,
1,Isabelle Marosek,F,SBD,FR-Jr,75,Raw,2000,Alpha Strength and Power,GA,72.85,140,155,170,170,110,-120,-120,110,160,170,182.5,182.5,462.5,,
2,Elizabeth Bui,F,SBD,FR-Jr,75,Raw,2002,Alpha Strength and Power,GA,74.3,100,110,122.5,122.5,70,80,90,90,135,150,-155,150,362.5,,
3,Tiani Johnson,F,SBD,FR-Jr,75,Raw,2001,TruBorn Strong,GA,74.25,120,122.5,127.5,127.5,67.5,70,72.5,72.5,120,127.5,-137.5,127.5,327.5,,
4,Reagan Gower,F,SBD,FR-Jr,75,Raw,2000,,GA,72.3,-100,100,105,105,57.5,60,-62.5,60,135,-145,147.5,147.5,312.5,,
1,Katie Kahn,F,SBD,FR-Jr,100,Raw,2003,,GA,99.25,120,-127.5,127.5,127.5,57.5,-65,-65,57.5,147.5,157.5,-165,157.5,342.5,,
2,Meredith Lashley,F,SBD,FR-Jr,100,Raw,2000,,GA,100,85,-102.5,102.5,102.5,42.5,50,-55,50,125,137.5,142.5,142.5,295,,
1,CassiDee Rotolo,F,SBD,FR-Jr,67.5,Raw,2001,,GA,65.8,137.5,-145,145,145,87.5,92.5,95,95,145,155,165,165,405,,
2,Valerie Ladue,F,SBD,FR-Jr,67.5,Raw,2001,,GA,65.5,120,125,-132.5,125,67.5,-72.5,-72.5,67.5,140,150,-160,150,342.5,,
3,Sierra Ellis,F,SBD,FR-Jr,67.5,Raw,2003,,GA,61.1,-102.5,102.5,-105,102.5,70,75,77.5,77.5,137.5,142.5,145,145,325,,
4,Keren Garcia,F,SBD,FR-Jr,67.5,Raw,2001,,GA,66.1,95,102.5,105,105,50,57.5,62.5,62.5,125,137.5,142.5,142.5,310,,
5,Jenna Reese,F,SBD,FR-Jr,67.5,Raw,2004,,GA,67.35,90,97.5,102.5,102.5,50,57.5,-60,57.5,120,132.5,137.5,137.5,297.5,,
6,Michela Monteiro,F,SBD,FR-Jr,67.5,Raw,2002,Team Fueled,GA,67.5,-95,-95,95,95,55,60,-62.5,60,97.5,107.5,117.5,117.5,272.5,,
1,Sara Faith Griffin,F,SBD,FR-Jr,82.5,Raw,2001,,GA,76.7,127.5,140,-152.5,140,72.5,80,-82.5,80,140,150,162.5,162.5,382.5,,
2,Kennedy Nietert,F,SBD,FR-Jr,82.5,Raw,2002,,GA,78.9,-87.5,87.5,-92.5,87.5,47.5,52.5,57.5,57.5,85,92.5,100,100,245,,
1,Sarah Kriigel,F,SBD,FR-M1a,60,Raw,1983,Forbidden Technique,GA,59.8,92.5,-100,-100,92.5,52.5,57.5,60,60,117.5,125,130,130,282.5,,
1,Trish Footit,F,SBD,FR-M1,75,Raw,1979,,GA,72.25,137.5,145,-152.5,145,90,-95,-95,90,167.5,180,-185,180,415,,
1,Amelia Ferries,F,SBD,FR-M1a,90,Raw,1982,,GA,85.95,-105,105,110,110,57.5,60,-65,60,135,140,145,145,315,,
1,Jacqueline Parr,F,SBD,FR-M1a,82.5,Raw,1982,,GA,77.85,82.5,-92.5,-102.5,82.5,50,52.5,-57.5,52.5,102.5,110,-117.5,110,245,,
1,Michelle Shrout Bratsveen,F,SBD,FR-M2a,60,Raw,1970,,GA,59.55,57.5,62.5,67.5,67.5,40,45,-52.5,45,80,90,100,100,212.5,,
1,Lynn Hughes,F,SBD,FR-M2,75,Raw,1969,,GA,73.1,75,80,87.5,87.5,55,60,-67.5,60,100,107.5,117.5,117.5,265,,
1,Liliana Conner,F,SBD,FR-M2a,100+,Raw,1972,,GA,106,85,-92.5,100,100,57.5,65,,65,125,137.5,-142.5,137.5,302.5,,
1,Michelle Rutan,F,SBD,FR-M2,82.5,Raw,1969,,GA,78.2,115,120,125,125,-75,80,-82.5,80,125,135,140,140,345,,
2,Katherine McClure,F,SBD,FR-M2,82.5,Raw,1973,Alpha Strength and Power,GA,80.3,100,107.5,112.5,112.5,60,65,67.5,67.5,120,130,-137.5,130,310,,
1,Susan Butler,F,SBD,FR-M2b,56,Raw,1964,Team Fueled,GA,55.55,72.5,80,-85,80,47.5,50,-52.5,50,100,107.5,-110,107.5,237.5,,
2,Kay Lucas,F,SBD,FR-M2b,56,Raw,1965,TruBorn Strong,GA,53.9,-70,70,75,75,45,47.5,-50,47.5,80,85,90,90,212.5,,
1,Elizabeth Axtell,F,SBD,FR-M2b,60,Raw,1966,,GA,59.7,90,95,-97.5,95,47.5,-50,-50,47.5,110,117.5,122.5,122.5,265,,
1,Magdalena Hernandez,F,SBD,FR-M2b,100+,Raw,1968,TruBorn Strong,GA,109.8,-90,90,100,100,55,60,-65,60,130,135,140,140,300,,
1,Susan Kintz,F,SBD,FR-M3a,52,Raw,1964,Alpha Strength and Power,GA,51.45,70,75,80,80,42.5,45,47.5,47.5,90,95,102.5,102.5,230,,
1,Felicia Westmoreland,F,SBD,FR-M3,56,Raw,1959,TruBorn Strong,GA,55.65,45,50,55,55,32.5,35,-37.5,35,70,75,80,80,170,,
1,Cynthia Ward,F,SBD,FR-M3a,60,Raw,1960,,GA,57.55,40,45,47.5,47.5,35,37.5,-40,37.5,65,72.5,80,80,165,,
1,Ann Peden,F,SBD,FR-M3a,67.5,Raw,1960,,GA,67.5,-75,-75,75,75,40,42.5,-47.5,42.5,92.5,102.5,-107.5,102.5,220,,
1,Gwen Cook,F,SBD,FR-M3a,82.5,Raw,1961,Team Rohr,GA,79.25,75,80,85,85,-50,50,52.5,52.5,95,102.5,110,110,247.5,,
1,Michelle Dang,F,SBD,FR-O,44,Raw,1989,,GA,43.15,-95,-95,95,95,65,-70,70,70,122.5,130,-132.5,130,295,,
1,Lillianna Delp,F,SBD,FR-O,52,Raw,2008,TruBorn Strong,GA,49.75,-100,100,-105,100,47.5,50,-52.5,50,110,117.5,-122.5,117.5,267.5,,
2,Gini Paul,F,SBD,FR-O,52,Raw,1996,TruBorn Strong,GA,50.7,82.5,87.5,90,90,42.5,-45,-45,42.5,110,120,-127.5,120,252.5,,
3,Susan Kintz,F,SBD,FR-O,52,Raw,1964,Alpha Strength and Power,GA,51.45,70,75,80,80,42.5,45,47.5,47.5,90,95,102.5,102.5,230,,
DQ,Trinity Cain,F,SBD,FR-O,52,Raw,2003,,GA,50.85,-87.5,-92.5,-92.5,,40,-42.5,-42.5,40,132.5,140,147.5,147.5,,,
DQ,Caitlin Keener,F,SBD,FR-O,52,Raw,1992,TruBorn Strong,GA,51.9,-72.5,-75,-75,,42.5,-47.5,-47.5,42.5,110,117.5,125,125,,,
1,Lauren Harriman,F,SBD,FR-O,56,Raw,1994,Team Fueled,GA,55.05,142.5,150,157.5,157.5,87.5,92.5,97.5,97.5,165,172.5,180,180,435,,
2,Adrianna Bailey,F,SBD,FR-O,56,Raw,1999,Alpha Strength and Power,GA,52.25,115,120,122.5,122.5,77.5,80,-85,80,145,157.5,165,165,367.5,,
3,Katie Foote,F,SBD,FR-O,56,Raw,1998,,GA,55.3,-110,-115,115,115,65,67.5,-70,67.5,137.5,152.5,-157.5,152.5,335,,
4,Ho Khoi Nguyen Le,F,SBD,FR-O,56,Raw,1999,Team Fueled,GA,55.55,85,90,95,95,55,60,62.5,62.5,120,130,-137.5,130,287.5,,
5,Nina Kim,F,SBD,FR-O,56,Raw,1997,TruBorn Strong,GA,53.45,67.5,72.5,-77.5,72.5,40,-42.5,42.5,42.5,90,97.5,105,105,220,,
6,Reece Williams #2,F,SBD,FR-O,56,Raw,2006,,GA,53.75,-67.5,-75,75,75,50,52.5,-55,52.5,75,85,-87.5,85,212.5,,
7,Kay Lucas,F,SBD,FR-O,56,Raw,1965,TruBorn Strong,GA,53.9,-70,70,75,75,45,47.5,-50,47.5,80,85,90,90,212.5,,
1,Jacqueline Tu,F,SBD,FR-O,60,Raw,1999,,GA,59.8,130,137.5,-140,137.5,67.5,72.5,-77.5,72.5,135,142.5,147.5,147.5,357.5,,
2,Courtney Nguyen,F,SBD,FR-O,60,Raw,2003,,GA,59.15,110,120,125,125,40,45,47.5,47.5,130,140,145,145,317.5,,
3,Meghan Valentine,F,SBD,FR-O,60,Raw,1980,,GA,59.5,100,-105,105,105,70,75,-85,75,112.5,117.5,-137.5,117.5,297.5,,
4,Sarah Kriigel,F,SBD,FR-O,60,Raw,1983,Forbidden Technique,GA,59.8,92.5,-100,-100,92.5,52.5,57.5,60,60,117.5,125,130,130,282.5,,
5,Kristyn Evans-Doris,F,SBD,FR-O,60,Raw,1999,,GA,56.4,87.5,92.5,97.5,97.5,42.5,47.5,-52.5,47.5,107.5,115,120,120,265,,
6,Molly Walker,F,SBD,FR-O,60,Raw,1990,,GA,58.2,72.5,77.5,-85,77.5,42.5,-45,-45,42.5,92.5,105,-110,105,225,,
1,Isabelle Marosek,F,SBD,FR-O,75,Raw,2000,Alpha Strength and Power,GA,72.85,140,155,170,170,110,-120,-120,110,160,170,182.5,182.5,462.5,,
2,Jermisha Kenny,F,SBD,FR-O,75,Raw,1996,Team Fueled,GA,72,125,130,135,135,90,95,97.5,97.5,152.5,162.5,170,170,402.5,,
3,April Gadsby,F,SBD,FR-O,75,Raw,1993,Team Rohr,GA,74.7,125,132.5,140,140,80,87.5,-92.5,87.5,130,142.5,-152.5,142.5,370,,
4,Ally Walton,F,SBD,FR-O,75,Raw,1989,TruBorn Strong,GA,72.35,110,117.5,-125,117.5,67.5,70,-72.5,70,127.5,137.5,145,145,332.5,,
5,Danesha Cross,F,SBD,FR-O,75,Raw,1997,Team Fueled,GA,72.35,-107.5,-107.5,112.5,112.5,55,57.5,-60,57.5,135,-142.5,-142.5,135,305,,
6,Cate Chandler,F,SBD,FR-O,75,Raw,1990,,GA,74.95,-67.5,67.5,-72.5,67.5,37.5,-45,-45,37.5,85,92.5,100,100,205,,
1,CariAnna Bryant,F,SBD,FR-O,90,Raw,1991,,GA,88.4,117.5,125,137.5,137.5,60,-65,-65,60,127.5,137.5,150,150,347.5,,
2,Rosy Reyes,F,SBD,FR-O,90,Raw,1998,,GA,88.8,-105,112.5,-125,112.5,-52.5,60,-65,60,117.5,125,135,135,307.5,,
1,Kyairah Lawson,F,SBD,FR-O,100,Raw,1997,TruBorn Strong,GA,94.65,85,90,95,95,55,60,65,65,90,100,110,110,270,,
1,Rebecca Holcomb,F,SBD,FR-O,100+,Raw,1987,,GA,164.85,157.5,162.5,167.5,167.5,105,107.5,110,110,197.5,205,-212.5,205,482.5,,
2,Makenzie Bunton,F,SBD,FR-O,100+,Raw,1997,,GA,107.4,-142.5,145,147.5,147.5,62.5,-65,-65,62.5,142.5,-147.5,-150,142.5,352.5,,
3,Maura Monacella,F,SBD,FR-O,100+,Raw,1994,,GA,113.4,115,125,130,130,72.5,77.5,82.5,82.5,115,125,137.5,137.5,350,,
4,Melissa Nin,F,SBD,FR-O,100+,Raw,1996,TruBorn Strong,GA,104,95,100,105,105,60,65,70,70,120,125,130,130,305,,
5,Abigail Traylor,F,SBD,FR-O,100+,Raw,1996,,GA,127.5,-102.5,107.5,-110,107.5,55,-65,-65,55,100,110,-120,110,272.5,,
DQ,Ebony Johnson,F,SBD,FR-O,100+,Raw,1994,TruBorn Strong,GA,127.15,-110,-110,-110,,65,70,77.5,77.5,110,130,-150,130,,,
1,CassiDee Rotolo,F,SBD,FR-O,67.5,Raw,2001,,GA,65.8,137.5,-145,145,145,87.5,92.5,95,95,145,155,165,165,405,,
2,Kayla Scheidt,F,SBD,FR-O,67.5,Raw,1992,,GA,67.5,135,140,142.5,142.5,67.5,70,-72.5,70,160,165,167.5,167.5,380,,
3,Lauren Mayger,F,SBD,FR-O,67.5,Raw,1997,TruBorn Strong,GA,66.7,-142.5,142.5,-150,142.5,72.5,-75,75,75,142.5,150,155,155,372.5,,
4,Laykin Harris Herford,F,SBD,FR-O,67.5,Raw,1995,,GA,63.55,125,-130,-130,125,57.5,65,-72.5,65,127.5,132.5,140,140,330,,
5,Leana Martinez,F,SBD,FR-O,67.5,Raw,1997,,GA,65.25,-125,-127.5,127.5,127.5,40,45,50,50,120,130,140,140,317.5,,
6,Taylor Smith #18,F,SBD,FR-O,67.5,Raw,1997,Team Rohr,GA,66,90,97.5,102.5,102.5,55,57.5,60,60,125,137.5,155,155,317.5,,
7,Erika Malpica,F,SBD,FR-O,67.5,Raw,1997,,GA,65.1,115,127.5,-137.5,127.5,40,45,47.5,47.5,127.5,140,-145,140,315,,
8,Layla Obregon,F,SBD,FR-O,67.5,Raw,1999,,GA,65.45,107.5,112.5,-117.5,112.5,-60,60,67.5,67.5,122.5,127.5,135,135,315,,
9,Linda Sghayyer,F,SBD,FR-O,67.5,Raw,1998,,GA,67.3,-107.5,107.5,115,115,42.5,50,-55,50,130,140,-147.5,140,305,,
10,Jenna Reese,F,SBD,FR-O,67.5,Raw,2004,,GA,67.35,90,97.5,102.5,102.5,50,57.5,-60,57.5,120,132.5,137.5,137.5,297.5,,
11,Victoria Haner,F,SBD,FR-O,67.5,Raw,1994,,GA,66.25,-95,95,100,100,40,42.5,-45,42.5,107.5,115,-125,115,257.5,,
12,Airyagany Hall,F,SBD,FR-O,67.5,Raw,1991,Team Rohr,GA,66.8,-70,-70,70,70,35,37.5,40,40,90,100,110,110,220,,
DQ,Mackenzie Ingram,F,SBD,FR-O,67.5,Raw,2006,,GA,67.25,85,-97.5,-97.5,85,35,40,-45,40,-100,-100,-100,,,,
1,Toni Johnson,F,SBD,FR-O,82.5,Raw,1994,TruBorn Strong,GA,81.65,-180,180,195,195,82.5,85,87.5,87.5,202.5,-217.5,217.5,217.5,500,,
2,Isabelle Boughadou,F,SBD,FR-O,82.5,Raw,1999,Team Rohr,GA,81.5,157.5,165,175,175,105,112.5,-117.5,112.5,165,-175,175,175,462.5,,
3,Allyson Terry,F,SBD,FR-O,82.5,Raw,1994,Alpha Strength and Power,GA,78.65,147.5,155,160,160,92.5,97.5,100,100,175,180,185,185,445,,
4,Breanna Gates,F,SBD,FR-O,82.5,Raw,1994,,GA,79.9,-132.5,-135,135,135,70,75,-77.5,75,172.5,180,187.5,187.5,397.5,,
5,Hannah Warren,F,SBD,FR-O,82.5,Raw,1997,TruBorn Strong,GA,78.95,130,140,-147.5,140,60,65,67.5,67.5,140,-150,150,150,357.5,,
6,Kristen Hutson,F,SBD,FR-O,82.5,Raw,1993,Alpha Strength and Power,GA,80.4,115,120,125,125,70,-75,75,75,140,145,150,150,350,,
7,Kelly Faulkner,F,SBD,FR-O,82.5,Raw,1992,TruBorn Strong,GA,82.4,102.5,107.5,112.5,112.5,62.5,65,67.5,67.5,120,132.5,145,145,325,,
8,Gigi Gouraige,F,SBD,FR-O,82.5,Raw,1994,TruBorn Strong,GA,80.95,90,95,100,100,55,60,-65,60,130,135,140,140,300,,
9,Jacqueline Parr,F,SBD,FR-O,82.5,Raw,1982,,GA,77.85,82.5,-92.5,-102.5,82.5,50,52.5,-57.5,52.5,102.5,110,-117.5,110,245,,
DQ,Veronica Young,F,SBD,FR-O,82.5,Raw,1994,,GA,76.75,-42.5,-42.5,-52.5,,37.5,-45,-45,37.5,82.5,92.5,97.5,97.5,,,
1,Lillianna Delp,F,SBD,FR-T1,52,Raw,2008,TruBorn Strong,GA,49.75,-100,100,-105,100,47.5,50,-52.5,50,110,117.5,-122.5,117.5,267.5,,
1,Olivia Fleetwood,F,SBD,FR-T1,56,Raw,2009,,GA,54.65,87.5,95,100,100,42.5,47.5,50,50,95,105,115,115,265,,
1,Caitlin Grice,F,SBD,FR-T1,60,Raw,2008,TruBorn Strong,GA,58.55,92.5,-100,-100,92.5,40,42.5,-45,42.5,107.5,117.5,120,120,255,,
1,Meliah Rodriguez,F,SBD,FR-T2,56,Raw,2006,,GA,53.4,77.5,85,90,90,40,-45,-45,40,90,100,105,105,235,,
2,Reece Williams #2,F,SBD,FR-T2,56,Raw,2006,,GA,53.75,-67.5,-75,75,75,50,52.5,-55,52.5,75,85,-87.5,85,212.5,,
1,Kelly Althoff,F,SBD,FR-T2,67.5,Raw,2006,,GA,64.25,120,130,135,135,87.5,92.5,95.5,95.5,140,150,160,160,390.5,,
1,Marina Rodriguez,F,SBD,FR-T2,82.5,Raw,2007,,GA,82.45,90,97.5,105,105,50,55,57.5,57.5,95,102.5,-110,102.5,265,,
1,Lindsey Noble,F,SBD,FR-T3,60,Raw,2005,,GA,59.35,92.5,97.5,102.5,102.5,60,-62.5,62.5,62.5,105,110,115,115,280,,
1,Ayla Teresi,F,SBD,FR-T3,75,Raw,2005,,GA,71.15,147.5,155,160,160,87.5,92.5,95,95,180,185,187.5,187.5,442.5,,
2,Angelina Fields,F,SBD,FR-T3,75,Raw,2004,TruBorn Strong,GA,74.3,100,105,110,110,55,62.5,-67.5,62.5,135,145,152.5,152.5,325,,
1,Chloe Marchman,F,SBD,FR-T3,100+,Raw,2004,,GA,101.25,-110,-110,110,110,-57.5,57.5,60,60,157.5,165,170,170,340,,
1,Wissal Guerrouj,F,SBD,FR-T3,67.5,Raw,2005,TruBorn Strong,GA,64.3,135,142.5,150,150,55,60,62.5,62.5,127.5,137.5,147.5,147.5,360,,
DQ,Mackenzie Ingram,F,SBD,FR-T3,67.5,Raw,2006,,GA,67.25,85,-97.5,-97.5,85,35,40,-45,40,-100,-100,-100,,,,
1,Karley Corless,F,SBD,FR-Y2,48,Raw,2012,,GA,45.25,-52.5,52.5,-55,52.5,22.5,26,30,30,57.5,63,67.5,67.5,150,,
1,Allene Fleetwood,F,SBD,FR-Y3,44,Raw,2012,,GA,41.45,47.5,52.5,-57.5,52.5,30,35,37.5,37.5,65,72.5,80,80,170,,
1,Phillip Buss,M,SBD,M-O,90,Single-ply,1993,TruBorn Strong,GA,89.55,197.5,207.5,-215,207.5,137.5,-142.5,-142.5,137.5,215,227.5,-237.5,227.5,572.5,,
1,TraShon Hightower,M,SBD,M-O,82.5,Single-ply,1996,TruBorn Strong,GA,81.59,300,-302.5,-315,300,-180,180,-182.5,180,220,265,-275,265,745,,
G,Jordan John,M,SBD,MR-G,110,Raw,2000,,WI,107.85,235,250,262.5,262.5,162.5,172.5,-180,172.5,295,310,-327.5,310,745,,
G,Shepard Stapleton,M,SBD,MR-G,110,Raw,2008,,SC,106.1,210,225,236,236,130,135,-137.5,135,220,240.5,-243,240.5,611.5,,
1,Will Forgey,M,SBD,MR-Jr,75,Raw,2004,,GA,72.95,172.5,182.5,-187.5,182.5,117.5,122.5,125,125,190,205,-215,205,512.5,,
2,Nicholas Talicuran,M,SBD,MR-Jr,75,Raw,2003,,GA,74.55,172.5,-182.5,182.5,182.5,105,110,-115,110,200,212.5,-222.5,212.5,505,,
3,Leo Garcia Luna,M,SBD,MR-Jr,75,Raw,2002,,GA,74.25,167.5,180,-190,180,95,100,-110,100,-207.5,207.5,-220,207.5,487.5,,
4,Jonathan Penalver,M,SBD,MR-Jr,75,Raw,2003,Alpha Strength and Power,GA,74.8,160,175,185,185,90,100,105,105,165,180,195,195,485,,
5,Justin McDougald,M,SBD,MR-Jr,75,Raw,2003,TruBorn Strong,GA,74.05,-147.5,155,-162.5,155,82.5,87.5,-90,87.5,162.5,172.5,182.5,182.5,425,,
1,Abanoub Ibrahim,M,SBD,MR-Jr,90,Raw,2002,TruBorn Strong,GA,87.4,222.5,235,245,245,165,175,-182.5,175,240,255,-260,255,675,,
2,Eric Lu,M,SBD,MR-Jr,90,Raw,2001,,GA,88.7,215,237.5,242.5,242.5,137.5,145,-152.5,145,220,-232.5,-232.5,220,607.5,,
3,Kevin Le,M,SBD,MR-Jr,90,Raw,2002,TruBorn Strong,GA,89.8,205,227.5,-232.5,227.5,135,142.5,,142.5,202.5,230,-242.5,230,600,,
4,Harley Hernandez,M,SBD,MR-Jr,90,Raw,2003,,GA,88.45,225,-237.5,237.5,237.5,110,117.5,-125,117.5,210,220,227.5,227.5,582.5,,
5,David Edwards,M,SBD,MR-Jr,90,Raw,2002,,GA,85.6,207.5,220,227.5,227.5,107.5,-117.5,-117.5,107.5,222.5,235,245,245,580,,
1,Remon Abdelmasih,M,SBD,MR-Jr,100,Raw,2003,TruBorn Strong,GA,98.7,212.5,-215,232.5,232.5,-137.5,147.5,152.5,152.5,235,245,252.5,252.5,637.5,,
2,Evan Joiner,M,SBD,MR-Jr,100,Raw,2002,,GA,99.95,240,247.5,250,250,127.5,-132.5,-132.5,127.5,245,-252.5,-252.5,245,622.5,,
3,Samuel Buckner,M,SBD,MR-Jr,100,Raw,2003,,GA,96.15,205,-215,215,215,135,142.5,-147.5,142.5,230,235,240,240,597.5,,
4,Ariel Barrientos,M,SBD,MR-Jr,100,Raw,2000,TruBorn Strong,GA,99.95,180,195,210,210,115,125,-132.5,125,225,245,-265,245,580,,
5,Max Wilson,M,SBD,MR-Jr,100,Raw,2000,Team Fueled,GA,97.35,190,197.5,-202.5,197.5,135,140,-145,140,205,215,220,220,557.5,,
DQ,Devin Yates,M,SBD,MR-Jr,100,Raw,2004,,GA,98.65,-187.5,-187.5,-195,,97.5,102.5,-110,102.5,185,200,210,210,,,
1,Jack Rupley,M,SBD,MR-Jr,110,Raw,2003,TruBorn Strong,GA,106.2,232.5,240,-250,240,140,145,-150,145,255,-265,-272.5,255,640,,
2,Matthew Springer,M,SBD,MR-Jr,110,Raw,2003,TruBorn Strong,GA,107,160,-167.5,170,170,80,85,-90,85,185,192.5,-200,192.5,447.5,,
1,Eduardo Santos,M,SBD,MR-Jr,125,Raw,2002,,GA,118.05,162.5,170,182.5,182.5,102.5,110,-125,110,162.5,185,-207.5,185,477.5,,
1,Timothy Autry,M,SBD,MR-Jr,140,Raw,2003,,GA,136.95,200,215,-227.5,215,-147.5,147.5,155,155,182.5,192.5,200,200,570,,
1,Jason Kirkbride,M,SBD,MR-Jr,140+,Raw,2002,,GA,147.5,207.5,222.5,230,230,117.5,125,132.5,132.5,212.5,222.5,230,230,592.5,,
1,Joshua Canlas,M,SBD,MR-Jr,67.5,Raw,2004,TruBorn Strong,GA,65.65,150,-167.5,172.5,172.5,97.5,105,110,110,182.5,202.5,-205,202.5,485,,
2,Jonathan Nguyen,M,SBD,MR-Jr,67.5,Raw,2003,,GA,62.25,135,145,155,155,100,107.5,-112.5,107.5,150,165,177.5,177.5,440,,
3,Hunter Daniel,M,SBD,MR-Jr,67.5,Raw,2001,,GA,62.4,142.5,155,-165,155,72.5,80,-85,80,175,190,200,200,435,,
4,Michael Dang,M,SBD,MR-Jr,67.5,Raw,2001,TruBorn Strong,GA,66.5,127.5,132.5,135,135,72.5,77.5,-80,77.5,175,182.5,190,190,402.5,,
5,Wesley Barnes,M,SBD,MR-Jr,67.5,Raw,2002,,GA,64.1,-132.5,-135,135,135,80,85,92.5,92.5,165,172.5,-190,172.5,400,,
6,Shawn Smith,M,SBD,MR-Jr,67.5,Raw,2001,,GA,63.55,-125,125,130,130,85,-90,90,90,145,167.5,-185,167.5,387.5,,
1,Malachi Robinson,M,SBD,MR-Jr,82.5,Raw,2002,,GA,81.5,202.5,215,225,225,135,142.5,-147.5,142.5,247.5,262.5,272.5,272.5,640,,
2,Keir Pienaar,M,SBD,MR-Jr,82.5,Raw,2002,Team Fueled,GA,80.55,-210,215,-222.5,215,147.5,155,160,160,240,252.5,-262.5,252.5,627.5,,
3,Nijal Oshode,M,SBD,MR-Jr,82.5,Raw,2001,,GA,77.45,-210,217.5,235,235,122.5,127.5,135,135,210,-225,237.5,237.5,607.5,,
4,Joshua Gilbertson,M,SBD,MR-Jr,82.5,Raw,2000,,GA,81.8,205,220,-232.5,220,135,140,147.5,147.5,190,205,215,215,582.5,,
5,Luis Suarez,M,SBD,MR-Jr,82.5,Raw,2001,,GA,82.1,-210,210,220,220,122.5,127.5,135,135,215,227.5,-237.5,227.5,582.5,,
6,James Whidden,M,SBD,MR-Jr,82.5,Raw,2000,Alpha Strength and Power,GA,82.15,170,190,210,210,100,110,120,120,220,240,-260,240,570,,
7,Lucas Arrowood,M,SBD,MR-Jr,82.5,Raw,2003,,GA,80.6,207.5,215,-222.5,215,132.5,142.5,-145,142.5,207.5,-222.5,-222.5,207.5,565,,
8,Jackson Lyons,M,SBD,MR-Jr,82.5,Raw,2003,,GA,81.35,187.5,200,205,205,125,132.5,137.5,137.5,190,205,210,210,552.5,,
9,Sean Whatley,M,SBD,MR-Jr,82.5,Raw,2002,,GA,79.95,192.5,-205,-205,192.5,107.5,117.5,-122.5,117.5,220,-235,-235,220,530,,
10,Jeffrey Castillo,M,SBD,MR-Jr,82.5,Raw,2002,,GA,80.55,145,155,165,165,92.5,100,-105,100,157.5,170,182.5,182.5,447.5,,
1,James McGuire,M,SBD,MR-M1a,90,Raw,1981,,GA,89.7,172.5,-185,-190,172.5,147.5,157.5,-162.5,157.5,200,227.5,240,240,570,,
2,William Kriigel,M,SBD,MR-M1a,90,Raw,1983,Forbidden Technique,GA,89.4,177.5,192.5,202.5,202.5,117.5,125,-130,125,207.5,222.5,225,225,552.5,,
1,Jeremy Lapierre,M,SBD,MR-M1a,110,Raw,1981,,GA,105,210,-217.5,-217.5,210,125,132.5,142.5,142.5,200,215,-230,215,567.5,,
DQ,Elias Mejias,M,SBD,MR-M1a,140+,Raw,1980,,GA,148.4,150,-180,-180,150,-150,-180,-180,,180,200,220,220,,,
1,Chad Valentine,M,SBD,MR-M1b,75,Raw,1977,,GA,74.6,-110,110,-130,110,110,120,-125,120,140,160,-180,160,390,,
DQ,Robert Fox,M,SBD,MR-M1b,90,Raw,1975,,GA,88.55,137.5,142.5,147.5,147.5,-132.5,-132.5,-132.5,,200,210,-215,210,,,
1,Jason Vaughan,M,SBD,MR-M1b,140,Raw,1975,,GA,135.6,135,142.5,152.5,152.5,95,102.5,-110,102.5,140,152.5,165,165,420,,
1,Troy Williams #1,M,SBD,MR-M1b,140+,Raw,1978,,GA,178.2,-217.5,-217.5,217.5,217.5,140,145,-147.5,145,215,242.5,260,260,622.5,,
1,Kevin Cregan,M,SBD,MR-M2a,110,Raw,1970,Team Rohr,GA,101.9,180,192.5,205,205,147.5,155,162.5,162.5,232.5,250,257.5,257.5,625,,
1,Austin Wimberly,M,SBD,MR-M2a,140,Raw,1971,,GA,138.75,160,165,-172.5,165,110,117.5,-122.5,117.5,160,170,180,180,462.5,,
1,Tim Spaid,M,SBD,MR-M2b,110,Raw,1965,TruBorn Strong,GA,108.05,182.5,192.5,197.5,197.5,140,147.5,152.5,152.5,167.5,182.5,195,195,545,,
1,Rip Schroeder,M,SBD,MR-M3a,75,Raw,1962,,GA,73.6,92.5,102.5,117.5,117.5,102.5,112.5,-132.5,112.5,102.5,125,142.5,142.5,372.5,,
1,Darrell Allen,M,SBD,MR-M3a,100,Raw,1961,,GA,93.65,-175,180,195,195,147.5,150,-152.5,150,180,195,-200,195,540,,
1,Richard Wittmann,M,SBD,MR-M3b,90,Raw,1956,,GA,86.05,110,130,142.5,142.5,95,107.5,115,115,185,200,-210,200,457.5,,
1,John Chouinard,M,SBD,MR-M4a,75,Raw,1953,,GA,69.35,87.5,95,100,100,65,67.5,72.5,72.5,-125,125,130,130,302.5,,
1,Kofi Mensah,M,SBD,MR-O,75,Raw,1995,,GA,74.6,212.5,220,227.5,227.5,-137.5,-137.5,137.5,137.5,265,272.5,277.5,277.5,642.5,,
2,Chiehmeng Chen,M,SBD,MR-O,75,Raw,1993,,GA,74.6,215,225,230,230,130,-140,140,140,225,240,245,245,615,,
3,Brandon Reyna,M,SBD,MR-O,75,Raw,1999,,GA,74.5,165,180,195,195,112.5,117.5,-122.5,117.5,-225,240,-260,240,552.5,,
4,James Crowe,M,SBD,MR-O,75,Raw,2005,,GA,74,150,-160,-160,150,105,112.5,120,120,142.5,155,-167.5,155,425,,
DQ,Matthew Impagliatelli,M,SBD,MR-O,75,Raw,1993,,GA,73.85,-202.5,-202.5,-202.5,,120,125,130,130,227.5,240,255,255,,,
DQ,Miguel Zarate,M,SBD,MR-O,75,Raw,1999,,GA,74,-170,-170,-170,,105,110,115,115,182.5,-195,210,210,,,
1,Kevin Sonukan,M,SBD,MR-O,90,Raw,1994,TruBorn Strong,GA,88.45,260,272.5,282.5,282.5,160,165,175,175,262.5,-275,-275,262.5,720,,
2,Daniel Bun,M,SBD,MR-O,90,Raw,1996,,GA,88.75,225,235,-245,235,142.5,-150,-150,142.5,250,265,-272.5,265,642.5,,
3,Nick Kreitner,M,SBD,MR-O,90,Raw,1999,TruBorn Strong,GA,87.15,210,220,227.5,227.5,127.5,132.5,137.5,137.5,247.5,-265,265,265,630,,
4,Michael Phillips,M,SBD,MR-O,90,Raw,1997,,GA,87.8,215,225,230,230,130,140,145,145,217.5,232.5,-250,232.5,607.5,,
5,Eric Park,M,SBD,MR-O,90,Raw,1998,TruBorn Strong,GA,86.8,207.5,220,-230,220,132.5,142.5,145,145,217.5,230,237.5,237.5,602.5,,
6,Keyston Fuller,M,SBD,MR-O,90,Raw,1996,,GA,87.2,210,-220,220,220,127.5,-132.5,132.5,132.5,235,-245,-245,235,587.5,,
7,Marcus MacRitchie Dillard,M,SBD,MR-O,90,Raw,1994,TruBorn Strong,GA,89.15,180,187.5,195,195,140,150,-160,150,210,222.5,230,230,575,,
8,Aron Weatherford,M,SBD,MR-O,90,Raw,1997,,GA,84.85,190,200,-207.5,200,117.5,122.5,125,125,225,240,-247.5,240,565,,
9,William Kriigel,M,SBD,MR-O,90,Raw,1983,Forbidden Technique,GA,89.4,177.5,192.5,202.5,202.5,117.5,125,-130,125,207.5,222.5,225,225,552.5,,
10,Curtis Simpson,M,SBD,MR-O,90,Raw,1990,TruBorn Strong,GA,86.7,195,205,212.5,212.5,125,130,-140,130,180,192.5,200,200,542.5,,
11,Marvin White,M,SBD,MR-O,90,Raw,1991,TruBorn Strong,GA,87,187.5,192.5,-202.5,192.5,-110,120,130,130,185,190,197.5,197.5,520,,
12,Corian Roberson,M,SBD,MR-O,90,Raw,1987,,GA,85.75,155,162.5,170,170,112.5,117.5,122.5,122.5,200,210,220,220,512.5,,
13,Chandler White,M,SBD,MR-O,90,Raw,1998,,GA,85.7,160,-175,175,175,110,-120,120,120,192.5,202.5,-207.5,202.5,497.5,,
14,Nicholas Arcila,M,SBD,MR-O,90,Raw,2004,,GA,89.95,175,-187.5,187.5,187.5,92.5,97.5,-100,97.5,205,-217.5,-217.5,205,490,,
15,Sean Ryan,M,SBD,MR-O,90,Raw,1987,,GA,89.05,162.5,-170,175,175,112.5,117.5,-122.5,117.5,185,192.5,-200,192.5,485,,
16,Frankie Ramirez,M,SBD,MR-O,90,Raw,1995,TruBorn Strong,GA,88.35,145,152.5,-160,152.5,90,95,100,100,165,177.5,187.5,187.5,440,,
1,Josué Hernández,M,SBD,MR-O,100,Raw,1991,,GA,98.3,257.5,-267.5,272.5,272.5,172.5,180,185,185,282.5,300,-312.5,300,757.5,,
2,Marvin Rousseau,M,SBD,MR-O,100,Raw,1999,Team Fueled,GA,98.4,250,262.5,-272.5,262.5,165,172.5,-180,172.5,297.5,312.5,-325,312.5,747.5,,
3,Dylan Pontorno,M,SBD,MR-O,100,Raw,1997,TruBorn Strong,GA,99.45,-220,227.5,232.5,232.5,140,145,-150,145,260,275,282.5,282.5,660,,
4,Dauson Lacy,M,SBD,MR-O,100,Raw,2000,,GA,97.5,202.5,215,227.5,227.5,140,145,-150,145,240,260,-272.5,260,632.5,,
5,Sage Smith,M,SBD,MR-O,100,Raw,1997,,GA,97,192.5,202.5,215,215,140,150,-160,150,222.5,235,242.5,242.5,607.5,,
6,Evan Leka,M,SBD,MR-O,100,Raw,2006,,GA,95,222.5,232.5,,232.5,132.5,142.5,147.5,147.5,222.5,-232.5,,222.5,602.5,,
7,Ariel Barrientos,M,SBD,MR-O,100,Raw,2000,TruBorn Strong,GA,99.95,180,195,210,210,115,125,-132.5,125,225,245,-265,245,580,,
8,Jordan Afolabi,M,SBD,MR-O,100,Raw,1995,,GA,97.45,195,210,-220,210,122.5,130,-132.5,130,210,220,230,230,570,,
9,James Romaniw,M,SBD,MR-O,100,Raw,1989,,GA,97.3,175,182.5,-195,182.5,120,132.5,-140,132.5,-205,230,-235,230,545,,
10,Tyson Wynn,M,SBD,MR-O,100,Raw,1985,,GA,96.3,182.5,-190,-190,182.5,130,-140,-140,130,185,200,222.5,222.5,535,,
11,Kody Norris,M,SBD,MR-O,100,Raw,1998,,GA,97.4,160,172.5,185,185,110,120,125,125,192.5,205,-217.5,205,515,,
12,Tim Maitski,M,SBD,MR-O,100,Raw,1960,,GA,100,170,-177.5,-177.5,170,122.5,127.5,-132.5,127.5,180,192.5,-200,192.5,490,,
13,Israel Ledezma,M,SBD,MR-O,100,Raw,1999,TruBorn Strong,GA,97.9,135,145,155,155,90,97.5,105,105,170,185,200,200,460,,
1,Ricky Estes,M,SBD,MR-O,110,Raw,1999,Alpha Strength and Power,GA,107.8,270,290,-305,290,170,180,182.5,182.5,310,332.5,340,340,812.5,,
2,Tyler Williams,M,SBD,MR-O,110,Raw,1999,,GA,108.35,285,300,-317.5,300,165,172.5,180,180,300,315,332.5,332.5,812.5,,
3,Kurtis Farmer,M,SBD,MR-O,110,Raw,1998,,GA,107.3,255,275,-280,275,187.5,195,-205,195,300,310,320,320,790,,
4,Addison Mock,M,SBD,MR-O,110,Raw,1997,TruBorn Strong,GA,107.75,272.5,282.5,-295,282.5,147.5,-155,-155,147.5,285,300,-302.5,300,730,,
5,Noah Reese,M,SBD,MR-O,110,Raw,1999,,GA,109.8,240,260,-275,260,170,180,182.5,182.5,225,242.5,260,260,702.5,,
6,Brayden Naus,M,SBD,MR-O,110,Raw,2006,TruBorn Strong,GA,108.75,265,275,-281,275,155,165,-170,165,250,-265,-265,250,690,,
7,Rodney Jones,M,SBD,MR-O,110,Raw,1997,,GA,106.65,220,235,242.5,242.5,132.5,145,150,150,230,245,262.5,262.5,655,,
8,Kyle Farmer,M,SBD,MR-O,110,Raw,1991,,GA,108.35,230,240,-250,240,150,-160,-160,150,230,245,255,255,645,,
9,Justice Law,M,SBD,MR-O,110,Raw,1992,TruBorn Strong,GA,103.05,-210,222.5,227.5,227.5,142.5,-147.5,-147.5,142.5,250,265,272.5,272.5,642.5,,
10,Jack Rupley,M,SBD,MR-O,110,Raw,2003,TruBorn Strong,GA,106.2,232.5,240,-250,240,140,145,-150,145,255,-265,-272.5,255,640,,
11,Horatio Freeman,M,SBD,MR-O,110,Raw,1991,,GA,108.05,185,200,-210,200,142.5,-147.5,-147.5,142.5,282.5,287.5,-290,287.5,630,,
12,Casey Bozarth,M,SBD,MR-O,110,Raw,1987,,GA,108.25,225,227.5,-245,227.5,135,145,-152.5,145,225,247.5,257.5,257.5,630,,
13,Landon Stansberry,M,SBD,MR-O,110,Raw,2002,,GA,100.8,187.5,200,205,205,132.5,140,142.5,142.5,235,255,272.5,272.5,620,,
14,Christian Rodriguez #12,M,SBD,MR-O,110,Raw,1998,,GA,110,185,192.5,205,205,125,140,147.5,147.5,225,230,240,240,592.5,,
15,Aseem Khatri,M,SBD,MR-O,110,Raw,1984,,GA,104.7,157.5,170,185,185,110,120,127.5,127.5,197.5,215,232.5,232.5,545,,
16,Tim Spaid,M,SBD,MR-O,110,Raw,1965,TruBorn Strong,GA,108.05,182.5,192.5,197.5,197.5,140,147.5,152.5,152.5,167.5,182.5,195,195,545,,
17,Nicholas Coker,M,SBD,MR-O,110,Raw,1992,,GA,104.05,132.5,150,175,175,120,127.5,140,140,140,170,197.5,197.5,512.5,,
18,Matthew Springer,M,SBD,MR-O,110,Raw,2003,TruBorn Strong,GA,107,160,-167.5,170,170,80,85,-90,85,185,192.5,-200,192.5,447.5,,
1,Jon Moore,M,SBD,MR-O,125,Raw,1991,,GA,112.8,282.5,295,302.5,302.5,190,-200,200,200,320,332.5,-347.5,332.5,835,,
2,Nikita Koba,M,SBD,MR-O,125,Raw,1993,,GA,116.65,260,275,287.5,287.5,170,175,-180,175,295,315,-330,315,777.5,,
3,Dylan Aldridge,M,SBD,MR-O,125,Raw,1997,,GA,111,235,240,,240,-140,140,-142.5,140,230,240,260,260,640,,
4,Jacob Blevins,M,SBD,MR-O,125,Raw,1998,Team Rohr,GA,114.8,207.5,220,227.5,227.5,147.5,155,165,165,230,247.5,-267.5,247.5,640,,
5,Marquese Stallworth,M,SBD,MR-O,125,Raw,1997,TruBorn Strong,GA,112.85,220,230,237.5,237.5,150,157.5,-165,157.5,215,227.5,242.5,242.5,637.5,,
6,Devon Smart,M,SBD,MR-O,125,Raw,1991,TruBorn Strong,GA,122.85,235,240,242.5,242.5,125,130,-137.5,130,250,-262.5,-262.5,250,622.5,,
7,Kellen Ingram,M,SBD,MR-O,125,Raw,1993,,GA,120.1,185,197.5,-212.5,197.5,145,160,-170,160,200,222.5,237.5,237.5,595,,
1,Dominique Munroe,M,SBD,MR-O,140,Raw,1990,,GA,134.9,230,247.5,257.5,257.5,185,192.5,197.5,197.5,310,332.5,345,345,800,,
2,Andrew Rodgers-Walker,M,SBD,MR-O,140,Raw,1998,,GA,138.05,250,260,-272.5,260,155,160,-165,160,280,300,-322.5,300,720,,
3,Ray Nosari,M,SBD,MR-O,140,Raw,1988,Team Rohr,GA,134.9,217.5,230,235,235,140,150,157.5,157.5,230,240,245,245,637.5,,
4,Ahmad Anwary,M,SBD,MR-O,140,Raw,1990,,GA,131.25,177.5,190,-197.5,190,157.5,-162.5,-162.5,157.5,242.5,247.5,252.5,252.5,600,,
1,Brandon Mirabal,M,SBD,MR-O,67.5,Raw,2000,,GA,64.7,155,162.5,172.5,172.5,110,117.5,-130,117.5,175,185,197.5,197.5,487.5,,
2,Jeff Rogers,M,SBD,MR-O,67.5,Raw,1986,,GA,66.85,135,142.5,-152.5,142.5,72.5,82.5,-87.5,82.5,150,165,-172.5,165,390,,
1,Dennis Obregon,M,SBD,MR-O,82.5,Raw,1998,Team Fueled,GA,82.05,230,242.5,252.5,252.5,137.5,142.5,150,150,252.5,265,277.5,277.5,680,,
2,William Ruff,M,SBD,MR-O,82.5,Raw,1989,Team Rohr,GA,81.5,230,-245,245,245,135,142.5,150,150,230,257.5,272.5,272.5,667.5,,
3,Scott Buck,M,SBD,MR-O,82.5,Raw,2005,,GA,81.65,-220,230,237.5,237.5,140,147.5,-152.5,147.5,250,267.5,-270,267.5,652.5,,
4,Eric Quoc,M,SBD,MR-O,82.5,Raw,1999,Alpha Strength and Power,GA,80.2,210,220,-235,220,165,175,182.5,182.5,225,245,-255,245,647.5,,
5,Derrick Atkins,M,SBD,MR-O,82.5,Raw,1999,,GA,81.9,195,207.5,220,220,140,150,157.5,157.5,210,222.5,235,235,612.5,,
6,Matthew Moree,M,SBD,MR-O,82.5,Raw,1993,,GA,80.35,182.5,190,202.5,202.5,137.5,145,-147.5,145,220,245,252.5,252.5,600,,
7,Deandre Watkins,M,SBD,MR-O,82.5,Raw,1995,TruBorn Strong,GA,80.95,210,-215,-220,210,127.5,-130,130,130,252.5,260,-267.5,260,600,,
8,Kyle West,M,SBD,MR-O,82.5,Raw,1992,,GA,81.6,185,197.5,210,210,132.5,140,-147.5,140,227.5,240,250,250,600,,
9,Kevin Bolan,M,SBD,MR-O,82.5,Raw,1989,,GA,81.75,205,217.5,-227.5,217.5,-122.5,122.5,127.5,127.5,235,250,-260,250,595,,
10,David Gonzalez,M,SBD,MR-O,82.5,Raw,1999,,GA,81.55,210,-220,-227.5,210,132.5,-137.5,-137.5,132.5,250,-257.5,,250,592.5,,
11,Philip Pennington,M,SBD,MR-O,82.5,Raw,1999,,GA,80.95,182.5,195,205,205,132.5,137.5,-140,137.5,187.5,195,205,205,547.5,,
12,Lonnie Cottrell,M,SBD,MR-O,82.5,Raw,1996,,GA,81.35,170,-182.5,185,185,105,117.5,122.5,122.5,202.5,215,227.5,227.5,535,,
13,Joseph Reisigl,M,SBD,MR-O,82.5,Raw,1995,,GA,78.8,160,167.5,175,175,117.5,122.5,127.5,127.5,192.5,200,205,205,507.5,,
14,Kashyap Dadhaniya,M,SBD,MR-O,82.5,Raw,2000,Team Fueled,GA,82.3,170,180,187.5,187.5,102.5,107.5,-112.5,107.5,210,-220,-220,210,505,,
15,Francis Fernandes,M,SBD,MR-O,82.5,Raw,1984,Forbidden Technique,GA,80.45,157.5,-165,165,165,85,-87.5,87.5,87.5,240,250,-252.5,250,502.5,,
16,Blake Turner,M,SBD,MR-O,82.5,Raw,2008,,GA,81.75,165,185,-190,185,115,122.5,132.5,132.5,165,177.5,-187.5,177.5,495,,
17,Wesley Toler,M,SBD,MR-O,82.5,Raw,1993,Team Rohr,GA,81.8,157.5,165,-172.5,165,110,-115,117.5,117.5,190,207.5,-227.5,207.5,490,,
18,Aaron Williams,M,SBD,MR-O,82.5,Raw,1989,,GA,79.95,-122.5,-122.5,122.5,122.5,135,147.5,-155,147.5,180,182.5,202.5,202.5,472.5,,
19,Christopher Weitzen,M,SBD,MR-O,82.5,Raw,1985,Team Rohr,GA,77.45,107.5,115,-122.5,115,95,102.5,107.5,107.5,150,165,177.5,177.5,400,,
1,Coby Bailey,M,SBD,MR-T1,75,Raw,2008,,GA,72.1,-165,172.5,185,185,102.5,-107.5,107.5,107.5,182.5,202.5,-210,202.5,495,,
2,Joel Woodson,M,SBD,MR-T1,75,Raw,2009,,GA,70.8,135,142.5,150,150,87.5,90,-95,90,135,140,150,150,390,,
1,Killian Prince,M,SBD,MR-T1,67.5,Raw,2008,,GA,66.2,127.5,-132.5,-132.5,127.5,100,102.5,107.5,107.5,142.5,150,157.5,157.5,392.5,,
2,Hunter Aitkin,M,SBD,MR-T1,67.5,Raw,2009,,GA,66.7,85,92.5,-97.5,92.5,60,-65,-65,60,110,120,125,125,277.5,,
1,Blake Turner,M,SBD,MR-T1,82.5,Raw,2008,,GA,81.75,165,185,-190,185,115,122.5,132.5,132.5,165,177.5,-187.5,177.5,495,,
1,Derek Ruiz,M,SBD,MR-T2,60,Raw,2007,,GA,58.1,142.5,-147.5,-147.5,142.5,102.5,-107.5,-107.5,102.5,150,155,-160,155,400,,
DQ,Preston Valentine,M,SBD,MR-T2,60,Raw,2007,,GA,59.2,110,120,-130,120,-105,-105,-105,,,,,,,,
1,Terrence McCrae,M,SBD,MR-T2,90,Raw,2006,,GA,88.35,217.5,227.5,242.5,242.5,152.5,157.5,162.5,162.5,245,255,272.5,272.5,677.5,,
1,Evan Leka,M,SBD,MR-T2,100,Raw,2006,,GA,95,222.5,232.5,,232.5,132.5,142.5,147.5,147.5,222.5,-232.5,,222.5,602.5,,
2,Jacob Allen,M,SBD,MR-T2,100,Raw,2007,,GA,97.55,182.5,185,,185,100,107.5,-117.5,107.5,190,200,-215,200,492.5,,
1,Forrest Fretwell,M,SBD,MR-T2,110,Raw,2006,,GA,109.85,250,257.5,262.5,262.5,155,165,-175,165,262.5,270,282.5,282.5,710,,
2,Brayden Naus,M,SBD,MR-T2,110,Raw,2006,TruBorn Strong,GA,108.75,265,275,-281,275,155,165,-170,165,250,-265,-265,250,690,,
1,Justin Walker,M,SBD,MR-T2,125,Raw,2006,,GA,121.1,195,207.5,217.5,217.5,127.5,137.5,145,145,-202.5,220,230,230,592.5,,
2,Jeremiah Willingham,M,SBD,MR-T2,125,Raw,2006,,GA,122.5,165,177.5,190,190,115,-122.5,-122.5,115,200,215,227.5,227.5,532.5,,
1,Hayden Pittman,M,SBD,MR-T2,82.5,Raw,2006,,GA,77.85,185,195,207.5,207.5,110,125,-132.5,125,210,225,-252.5,225,557.5,,
2,Shawn Wilson,M,SBD,MR-T2,82.5,Raw,2007,,GA,81.45,182.5,195,-205,195,102.5,105,107.5,107.5,232.5,252.5,-265,252.5,555,,
3,Patrick Grice,M,SBD,MR-T2,82.5,Raw,2007,TruBorn Strong,GA,78.35,180,185,192.5,192.5,105,110,-120,110,210,217.5,-227.5,217.5,520,,
1,Victor Nguyen,M,SBD,MR-T3,56,Raw,2004,,GA,55.05,115,125,135,135,82.5,90,92.5,92.5,135,147.5,155,155,382.5,,
1,Brian Perez,M,SBD,MR-T3,75,Raw,2004,,GA,74.95,197.5,205,220,220,90,95,-97.5,95,240,255,267.5,267.5,582.5,,
2,John Abdelmessih,M,SBD,MR-T3,75,Raw,2005,TruBorn Strong,GA,74.35,187.5,197.5,-205,197.5,137.5,147.5,-157.5,147.5,210,222.5,235,235,580,,
3,James Crowe,M,SBD,MR-T3,75,Raw,2005,,GA,74,150,-160,-160,150,105,112.5,120,120,142.5,155,-167.5,155,425,,
1,Carter Tierney,M,SBD,MR-T3,90,Raw,2004,,GA,88.85,180,200,-217.5,200,107.5,115,120,120,220,240,-250,240,560,,
2,Adam Eskandar,M,SBD,MR-T3,90,Raw,2005,TruBorn Strong,GA,88.55,192.5,-200,200,200,120,125,127.5,127.5,210,-222.5,225,225,552.5,,
3,Austin Tucker,M,SBD,MR-T3,90,Raw,2004,,GA,85.95,167.5,180,187.5,187.5,122.5,135,-137.5,135,205,217.5,227.5,227.5,550,,
4,Nicholas Arcila,M,SBD,MR-T3,90,Raw,2004,,GA,89.95,175,-187.5,187.5,187.5,92.5,97.5,-100,97.5,205,-217.5,-217.5,205,490,,
5,Guillermo Ruiz,M,SBD,MR-T3,90,Raw,2005,,GA,84.55,145,160,172.5,172.5,90,97.5,100,100,170,185,192.5,192.5,465,,
1,Andrew Nunez,M,SBD,MR-T3,110,Raw,2005,,GA,108.9,162.5,167.5,172.5,172.5,102.5,110,112.5,112.5,192.5,200,207.5,207.5,492.5,,
1,Aaron Mcdaniel,M,SBD,MR-T3,125,Raw,2005,,GA,122.15,150,155,162.5,162.5,110,117.5,-125,117.5,160,175,185,185,465,,
2,Alex Paige,M,SBD,MR-T3,125,Raw,2005,Alpha Strength and Power,GA,112.5,145,160,167.5,167.5,130,140,-150,140,135,150,-182.5,150,457.5,,
1,Levi Wood,M,SBD,MR-T3,67.5,Raw,2005,TruBorn Strong,GA,63.6,110,120,130,130,75,80,85,85,110,120,132.5,132.5,347.5,,
1,Scott Buck,M,SBD,MR-T3,82.5,Raw,2005,,GA,81.65,-220,230,237.5,237.5,140,147.5,-152.5,147.5,250,267.5,-270,267.5,652.5,,
2,Braden Hale,M,SBD,MR-T3,82.5,Raw,2005,Team Fueled,GA,81.7,-207.5,212.5,220,220,130,135,140,140,212.5,222.5,-230,222.5,582.5,,
3,Dynyda Kunthy,M,SBD,MR-T3,82.5,Raw,2004,,GA,78.3,170,177.5,-182.5,177.5,100,105,110,110,210,222.5,230,230,517.5,,
4,Connor Scott,M,SBD,MR-T3,82.5,Raw,2005,TruBorn Strong,GA,80,-175,182.5,187.5,187.5,122.5,125,-130,125,200,-207.5,-207.5,200,512.5,,
5,Lucas Logan,M,SBD,MR-T3,82.5,Raw,2005,TruBorn Strong,GA,80.1,180,185,187.5,187.5,97.5,102.5,107.5,107.5,192.5,202.5,207.5,207.5,502.5,,
6,Stone Wilson,M,SBD,MR-T3,82.5,Raw,2004,,GA,79.65,105,110,120,120,65,70,-75,70,130,145,155,155,345,,
1,Charlie Clark,M,SBD,MR-Y1,40,Raw,2014,,GA,39.1,52.5,57.5,62.5,62.5,25,30,-31,30,62.5,67.5,75,75,167.5,,
1,Mark Fleetwood,M,SBD,MR-Y2,35,Raw,2013,,GA,35,35,37.5,42.5,42.5,25,27.5,30,30,57.5,62.5,67.5,67.5,140,,
2,Lucas Vincilione,M,SBD,MR-Y2,35,Raw,2012,,GA,34.75,35,37.5,42.5,42.5,22.5,-25,-28,22.5,45,52.5,-57.5,52.5,117.5,,
1,Trey Aitkin,M,SBD,MR-Y2,56,Raw,2012,,GA,54.2,42.5,47.5,-55,47.5,30,32.5,-35,32.5,55,60,67.5,67.5,147.5,,
1,Elias Mejias,M,SBD,MR-Y3,56,Raw,2010,,GA,53.95,60,-62.5,70,70,50,-60,-60,50,87.5,100,-115,100,220,,
1,Rick Boze,M,SBD,M-T3,110,Single-ply,2005,,GA,100.35,-202.5,202.5,212.5,212.5,147.5,157.5,-165,157.5,230,237.5,247.5,247.5,617.5,,
1,Katherine McClure,F,BD,FR-M2a,82.5,Raw,1973,Alpha Strength and Power,GA,80.3,,,,,60,65,67.5,67.5,120,130,-137.5,130,197.5,,
1,Allyson Terry,F,BD,FR-O,82.5,Raw,1994,Alpha Strength and Power,GA,78.65,,,,,92.5,97.5,100,100,175,180,185,185,285,,
1,Richard Wittmann,M,BD,MR-M3b,90,Raw,1956,,GA,86.05,,,,,95,107.5,115,115,185,200,-210,200,315,,
