Division,WeightClassKg,Place,Name,Team,BodyweightKg,Best3SquatKg,Best3BenchKg,Best3DeadliftKg,TotalKg,Equipment,Event,Sex,BirthDate
Boys,51.71,1,Christopher Martinez,Mission,47.81,95.25,43.09,83.91,222.26,Single-ply,SBD,M,
Boys,55.79,1,Pablo Pitero,Zapata,55.34,102.06,58.97,122.47,283.5,Single-ply,SBD,M,
Boys,55.79,DQ,Rosbel Vera,Mission,55.79,104.33,77.11,,,Single-ply,SBD,M,
Boys,59.87,1,Ulises Enriquez,Mercedes,59.24,161.03,102.06,199.58,462.66,Single-ply,SBD,M,
Boys,59.87,2,Matthew Sanchez,Mission Veterans Memorial,58.97,181.44,92.99,158.76,433.18,Single-ply,SBD,M,
Boys,59.87,3,Aaron Martinez #2,PSJA Southwest,58.69,149.69,92.99,149.69,392.36,Single-ply,SBD,M,
Boys,59.87,4,Santos Castellanos,Mission,59.15,117.93,77.11,149.69,344.73,Single-ply,SBD,M,
Boys,59.87,5,Brayan Pitero,Zapata,59.06,68.04,38.56,99.79,206.38,Single-ply,SBD,M,
Boys,59.87,DQ,Raul Camacho,Zapata,59.78,165.56,,,,Single-ply,SBD,M,
Boys,67.13,1,Devon Trevino,Mercedes,65.95,190.51,102.06,197.31,489.88,Single-ply,SBD,M,
Boys,67.13,2,Pablo López,Mission Veterans Memorial,66.41,195.04,111.13,183.7,489.88,Single-ply,SBD,M,
Boys,67.13,3,Jimmy Quintero,Mission,66.72,158.76,113.4,170.1,442.25,Single-ply,SBD,M,
Boys,67.13,4,Danny Riojos,Zapata,66.22,149.69,88.45,149.69,387.82,Single-ply,SBD,M,
Boys,67.13,5,Joel Sanchez #8,PSJA Southwest,63.41,151.95,81.65,142.88,376.48,Single-ply,SBD,M,
Boys,67.13,6,Joseph Salazar,Zapata,64.5,133.81,72.57,145.15,351.53,Single-ply,SBD,M,
Boys,67.13,7,Carlos Sanchez,Zapata,66.13,102.06,61.23,106.59,269.89,Single-ply,SBD,M,
Boys,74.84,1,Enrique Ordaz,Mission Veterans Memorial,73.03,183.7,117.93,190.51,492.15,Single-ply,SBD,M,
Boys,74.84,2,Adrian Garza,Zapata,73.03,199.58,102.06,183.7,485.34,Single-ply,SBD,M,
Boys,74.84,3,Isaiah Castro,Mercedes,73.75,183.7,108.86,183.7,476.27,Single-ply,SBD,M,
Boys,74.84,DQ,Alonso Bravo,Mission Veterans Memorial,73.94,224.53,158.76,,,Single-ply,SBD,M,
Boys,82.1,1,Javier Ornelas,Mission Veterans Memorial,79.29,229.06,147.42,226.8,603.28,Single-ply,SBD,M,
Boys,82.1,2,Luis De Hoyos,Mission Veterans Memorial,81.37,235.87,136.08,231.33,603.28,Single-ply,SBD,M,
Boys,82.1,3,Luis Segura,PSJA Southwest,75.39,204.12,133.81,197.31,535.24,Single-ply,SBD,M,
Boys,82.1,4,Marcelo Cantu,Mission Veterans Memorial,81.1,206.38,106.59,217.72,530.7,Single-ply,SBD,M,
Boys,82.1,5,Jonathan Rocha,Mission,82.1,195.04,127.01,197.31,519.36,Single-ply,SBD,M,
Boys,82.1,6,Jesus Badillo,Mission Veterans Memorial,82.1,183.7,108.86,170.1,462.66,Single-ply,SBD,M,
Boys,89.81,1,Miguel Jimenez,Mercedes,89.72,310.71,156.49,274.42,741.62,Single-ply,SBD,M,
Boys,89.81,2,Zeek Cuadors,Mission,87.45,272.16,142.88,238.14,653.17,Single-ply,SBD,M,
Boys,89.81,3,Ruben Alvarez,PSJA Southwest,86.55,154.22,97.52,163.29,415.04,Single-ply,SBD,M,
Boys,89.81,4,Jetzael Ramos,PSJA Southwest,83.01,161.03,77.11,142.88,381.02,Single-ply,SBD,M,
Boys,99.79,1,Roan Galvan,Mercedes,97.61,319.78,190.51,247.21,757.5,Single-ply,SBD,M,
Boys,99.79,2,Christian Hernandez,Mission,99.34,317.51,170.1,249.48,737.09,Single-ply,SBD,M,
Boys,99.79,3,Ethan Anciso,Mercedes,94.08,219.99,138.35,224.53,582.87,Single-ply,SBD,M,
Boys,99.79,4,Ronnie Guerra,Zapata,93.44,229.06,117.93,217.72,564.72,Single-ply,SBD,M,
Boys,99.79,5,Robert Benavidez,Zapata,97.16,206.38,142.88,201.85,551.11,Single-ply,SBD,M,
Boys,99.79,6,Dorian Martin,Mercedes,98.16,213.19,113.4,199.58,526.17,Single-ply,SBD,M,
Boys,99.79,7,Salomon Romero,PSJA Southwest,96.25,165.56,97.52,158.76,421.84,Single-ply,SBD,M,
Boys,99.79,8,Eddie Guijaro,PSJA Southwest,97.79,161.03,97.52,142.88,401.43,Single-ply,SBD,M,
Boys,99.79,9,Jesus Ponce,PSJA Southwest,93.35,158.76,74.84,163.29,396.89,Single-ply,SBD,M,
Boys,99.79,DQ,Heriberto Rocha,PSJA Southwest,93.71,183.7,,,,Single-ply,SBD,M,
Boys,99.79,DQ,Francisco Gomez,Mission Veterans Memorial,94.98,251.74,145.15,,,Single-ply,SBD,M,
Boys,109.77,1,Jose Abundis,Mercedes,101.6,260.82,149.69,219.99,630.49,Single-ply,SBD,M,
Boys,109.77,2,Ashton Guzman,Mission,105.14,215.46,131.54,201.85,548.85,Single-ply,SBD,M,
Boys,109.77,3,Nathanael Aguero,Mercedes,109.77,226.8,129.27,188.24,544.31,Single-ply,SBD,M,
Boys,109.77,4,Javier Gutierrez,Zapata,109.59,183.7,113.4,201.85,498.95,Single-ply,SBD,M,
Boys,109.77,5,Josue Martinez,PSJA Southwest,109.77,174.63,90.72,142.88,408.23,Single-ply,SBD,M,
Boys,109.77,DQ,Luis Rodriguez #13,Mission,106.41,165.56,106.59,,,Single-ply,SBD,M,
Boys,124.74,DQ,Mark Abila,Mission,115.58,254.01,161.03,,,Single-ply,SBD,M,
Boys,139.71,1,Oscar de la Cruz,PSJA Southwest,133.36,272.16,176.9,240.4,689.46,Single-ply,SBD,M,
Boys,139.71,2,Michael Garza #5,Mission,130.36,181.44,108.86,192.78,483.08,Single-ply,SBD,M,
Boys,139.71,3,Carlos Becerra,PSJA Southwest,137.26,183.7,122.47,158.76,464.93,Single-ply,SBD,M,
Boys,139.71+,1,Jamarion Owens,Mercedes,149.23,319.78,176.9,244.94,741.62,Single-ply,SBD,M,
